Introduction to R
…
df_1_summary_year<-df_1 %>% 
  group_by(Treatment,Year) %>% 
  summarise(MeanResponse=mean(Response_updated),
            SDResponse=sd(Response_updated))

`summarise()` has grouped output by 'Treatment'. You can override using the
`.groups` argument.

df_1_summary_year

# A tibble: 222 × 4
# Groups:   Treatment [3]
   Treatment  Year MeanResponse SDResponse
   <fct>     <dbl>        <dbl>      <dbl>
 1 Control    1950         1.42       26.6
 2 Control    1951        26.8        39.7
 3 Control    1952         8.86       32.5
 4 Control    1953         7.24       37.5
 5 Control    1954        17.0        45.7
 6 Control    1955        21.3        33.7
 7 Control    1956        42.0        35.2
 8 Control    1957        27.2        50.5
 9 Control    1958        24.5        49.9
10 Control    1959        30.6        37.1
# ℹ 212 more rows
…
